<svg width="22" height="22" viewBox="0 0 22 22" fill="none" xmlns="http://www.w3.org/2000/svg">
<path d="M17.4158 20.1668H4.58248C3.56996 20.1668 2.74915 19.346 2.74915 18.3335V5.50016C2.74915 4.48764 3.56996 3.66683 4.58248 3.66683H6.41581V1.8335H8.24915V3.66683H13.7491V1.8335H15.5825V3.66683H17.4158C18.4283 3.66683 19.2491 4.48764 19.2491 5.50016V18.3335C19.2491 19.346 18.4283 20.1668 17.4158 20.1668ZM4.58248 9.16683V18.3335H17.4158V9.16683H4.58248ZM4.58248 5.50016V7.3335H17.4158V5.50016H4.58248Z" fill="#222222"/>
</svg>
