<svg width="20" height="20" viewBox="0 0 20 20" fill="none" xmlns="http://www.w3.org/2000/svg">
<path d="M9.99988 8.74228e-07C15.5149 1.35636e-06 19.9999 4.486 19.9999 10C19.9999 15.514 15.5149 20 9.99988 20C4.48588 20 -0.000121678 15.514 -0.000121196 10C-0.000120714 4.486 4.48588 3.92179e-07 9.99988 8.74228e-07Z" fill="#C0392B" fill-opacity="0.15"/>
<path d="M6.55736 5.77942C6.74836 5.77942 6.94036 5.85242 7.08636 5.99842L10.5734 9.46842C10.7144 9.60942 10.7934 9.80042 10.7934 10.0004C10.7934 10.1994 10.7144 10.3904 10.5734 10.5314L7.08636 14.0034C6.79336 14.2954 6.31936 14.2954 6.02636 14.0014C5.73436 13.7074 5.73536 13.2324 6.02836 12.9404L8.98136 10.0004L6.02836 7.06042C5.73536 6.76842 5.73436 6.29442 6.02636 6.00042C6.17236 5.85242 6.36536 5.77942 6.55736 5.77942Z" fill="#C0392B"/>
<path d="M11.5574 5.77942C11.7484 5.77942 11.9404 5.85242 12.0864 5.99842L15.5734 9.46842C15.7144 9.60942 15.7934 9.80042 15.7934 10.0004C15.7934 10.1994 15.7144 10.3904 15.5734 10.5314L12.0864 14.0034C11.7934 14.2954 11.3194 14.2954 11.0264 14.0014C10.7344 13.7074 10.7354 13.2324 11.0284 12.9404L13.9814 10.0004L11.0284 7.06042C10.7354 6.76842 10.7344 6.29442 11.0264 6.00042C11.1724 5.85242 11.3654 5.77942 11.5574 5.77942Z" fill="#C0392B"/>
</svg>
