<svg width="52" height="52" viewBox="0 0 52 52" fill="none" xmlns="http://www.w3.org/2000/svg">
<rect width="52" height="52" rx="16" fill="#FFEBEE"/>
<path d="M26.2514 15.9996H25.1518C24.8203 14.8506 23.7612 14 22.5012 14C21.2411 14 20.1805 14.8506 19.8505 15.9996H18.7509C18.3414 15.9996 18.0009 16.3402 18.0009 16.7497V18.2498C18.0009 19.2099 18.7914 20.0004 19.7515 20.0004H25.2508C26.2109 20.0004 27.0015 19.2099 27.0015 18.2498V16.7497C27.0015 16.3402 26.6609 15.9996 26.2514 15.9996Z" fill="#E77A6E"/>
<path d="M28.251 17.0002H28.0005V18.2498C28.0005 19.7694 26.7704 20.9995 25.2508 20.9995H19.7499C18.2303 20.9995 17.0002 19.7694 17.0002 18.2498V17.0002H16.7497C15.2301 17.0002 14 18.2303 14 19.7499V32.2502C14 33.7713 15.2301 35.0014 16.7497 35.0014H24.1302L24.3507 33.7713C24.4512 33.2118 24.7107 32.7108 25.1113 32.3012L25.9108 31.5017H17.7503C17.3407 31.5017 17.0002 31.1612 17.0002 30.7516C17.0002 30.3421 17.3407 30.0016 17.7503 30.0016H27.2504C27.2999 30.0016 27.3404 30.0016 27.3899 30.0211H27.4004L31.0007 26.4208V19.7499C31.0007 18.2303 29.7706 17.0002 28.251 17.0002ZM27.2504 28.251H17.7503C17.3407 28.251 17.0002 27.9104 17.0002 27.5009C17.0002 27.0914 17.3407 26.7509 17.7503 26.7509H27.2504C27.6599 26.7509 28.0005 27.0914 28.0005 27.5009C28.0005 27.9104 27.6614 28.251 27.2504 28.251ZM27.2504 25.0002H17.7503C17.3407 25.0002 17.0002 24.6597 17.0002 24.2502C17.0002 23.8407 17.3407 23.5001 17.7503 23.5001H27.2504C27.6599 23.5001 28.0005 23.8407 28.0005 24.2502C28.0005 24.6612 27.6614 25.0002 27.2504 25.0002Z" fill="#C0392B"/>
<path d="M26.5268 38.0016C26.3288 38.0016 26.1383 37.9236 25.9958 37.7826C25.8233 37.6101 25.7453 37.3626 25.7873 37.1226L26.3183 34.1164C26.3453 33.9649 26.4173 33.8253 26.5268 33.7158L33.9523 26.2903C34.8644 25.3768 35.76 25.6228 36.2505 26.1133L37.4881 27.3509C38.1706 28.0335 38.1706 29.1435 37.4881 29.8261L30.0626 37.2516C29.9546 37.3611 29.8151 37.4331 29.6621 37.4601L26.6573 37.9911C26.6138 37.9971 26.5703 38.0016 26.5268 38.0016ZM29.533 36.722H29.5435H29.533Z" fill="#E77A6E"/>
</svg>
