<svg width="124" height="124" viewBox="0 0 124 124" fill="none" xmlns="http://www.w3.org/2000/svg">
<circle opacity="0.35" cx="62" cy="62" r="62" fill="#C0392B"/>
<circle cx="62" cy="62" r="50" fill="#C0392B"/>
<path d="M52.7465 54.9978L61.5967 91.6627C61.696 92.0743 62.2832 92.0695 62.3758 91.6563L70.6042 54.9452C70.6415 54.7786 70.7796 54.6535 70.9497 54.6384C74.8998 54.2874 79.9203 55.6184 83.0146 56.7051C83.4168 56.8463 83.7693 56.3335 83.4847 56.0163L61.6437 31.6793C61.4803 31.4972 61.1932 31.5031 61.0375 31.6919L40.7248 56.3132C40.4419 56.6562 40.8961 57.2325 41.3098 57.0695C44.934 55.6412 49.785 54.9189 52.3288 54.6946C52.5243 54.6774 52.7004 54.8069 52.7465 54.9978Z" fill="white"/>
</svg>
